<svg width="30" height="30" viewBox="0 0 30 30" fill="none" xmlns="http://www.w3.org/2000/svg">
<rect width="30" height="30" fill="#1AE4FD"/>
<path d="M7 12.4285C7 13.2175 7.63958 13.8571 8.42855 13.8571C9.21751 13.8571 9.85709 13.2175 9.85709 12.4285C9.85709 11.6396 9.21751 11 8.42855 11C7.63958 11 7 11.6396 7 12.4285Z" fill="#174258"/>
<path d="M20.1425 12.4285C20.1425 13.2175 20.7821 13.8571 21.5711 13.8571C22.36 13.8571 22.9996 13.2175 22.9996 12.4285C22.9996 11.6396 22.36 11 21.5711 11C20.7821 11 20.1425 11.6396 20.1425 12.4285Z" fill="#174258"/>
<path fill-rule="evenodd" clip-rule="evenodd" d="M9.51945 15.9368C9.71213 15.5925 10.1474 15.4697 10.4916 15.6623C12.4244 16.7442 13.8211 17.2182 15.1409 17.2145C16.4582 17.2107 17.8061 16.7306 19.6417 15.6675C19.9831 15.4698 20.4201 15.5863 20.6178 15.9277C20.8155 16.269 20.699 16.706 20.3577 16.9037C18.4399 18.0143 16.8317 18.6382 15.145 18.643C13.4608 18.6478 11.8057 18.035 9.79387 16.9089C9.44964 16.7162 9.32678 16.281 9.51945 15.9368Z" fill="#174258"/>
</svg>
